INDEX VERSION 1.130+C:\Users\javi\Desktop\Refactorizar Password\.metadata\.plugins\org.eclipse.jdt.core
4005617011.index
189530877.index
197789008.index
2725125150.index
1056031855.index
3449055620.index
3145607036.index
543409727.index
1686655237.index
3069256239.index
4062329064.index
2816613229.index
2075892729.index
3608585563.index
3627084181.index
3982276604.index
1654674800.index
1924480154.index
134360950.index
